Visualization
…
Average movie duration

mean(movie$duration)

## [1] 107.3348

Count of movies based on language

lang = movie %>%
        group_by(language) %>%
          summarise(n=n()) 
lang[order(-lang$n), ]

## # A tibble: 48 x 2
##    language      n
##    <chr>     <int>
##  1 English    4687
##  2 French       73
##  3 Spanish      40
##  4 Hindi        28
##  5 Mandarin     26
##  6 German       19
##  7 Japanese     18
##  8 Cantonese    11
##  9 Italian      11
## 10 Russian      11
## # ... with 38 more rows
…
